Desafio Data Science
…
Relaes e grficos

Nmero de individuos pela ocupao profissional e estado civil.

dataset %>%
  group_by(job) %>%
  count(marital, sort = TRUE)

## # A tibble: 35 x 3
## # Groups:   job [12]
##            job marital     n
##         <fctr>  <fctr> <int>
##  1 blue-collar married   693
##  2  management married   557
##  3  technician married   411
##  4  management  single   293
##  5  technician  single   268
##  6      admin. married   266
##  7    services married   236
##  8     retired married   176
##  9 blue-collar  single   174
## 10      admin.  single   143
## # ... with 25 more rows
…
